﻿Designator;Part Number;Description
C2;CC1206KKX7R8BB106;Кер.ЧИП конд. 10мкФ X7R 10%, 1206, 25В
C3;CC0603KRX7R9BB104;Кер.ЧИП конд. 0.1мкФ X7R 10%, 0603, 50В
C4;CC0603KRX7R9BB104;Кер.ЧИП конд. 0.1мкФ X7R 10%, 0603, 50В
C5;CC1206KKX7R8BB106;Кер.ЧИП конд. 10мкФ X7R 10%, 1206, 25В
C6;CC0402KRX7R9BB102;Кер.ЧИП конд. 1000пФ X7R 10%, 0402, 50В
C7;CC0402KRX7R9BB102;Кер.ЧИП конд. 1000пФ X7R 10%, 0402, 50В
C8;CC0603KRX7R9BB104;Кер.ЧИП конд. 0.1мкФ X7R 10%, 0603, 50В
C9;CC0603KRX7R9BB104;Кер.ЧИП конд. 0.1мкФ X7R 10%, 0603, 50В
C10;CC0603KRX7R9BB104;Кер.ЧИП конд. 0.1мкФ X7R 10%, 0603, 50В
C11;CC0805KRX7R9BB473;Кер.ЧИП конд. 47нФ X7R 10%, 0805, 50В
C12;CC0603KRX7R7BB474;Кер.ЧИП конд. 0.47мкФ X7R 10%, 0603, 16В
C13;CC0603KRX7R7BB474;Кер.ЧИП конд. 0.47мкФ X7R 10%, 0603, 16В
C14;GRM31CR61A476KE15L;Кер.ЧИП конд. 47мкФ X5R 10%, 1206, 10В
C15;CC0603KRX5R6BB475;Кер.ЧИП конд. 4.7мкФ X5R 10%, 0603, 10В
C16;CC0603KRX5R6BB475;Кер.ЧИП конд. 4.7мкФ X5R 10%, 0603, 10В
C17;CC0805KRX7R9BB473;Кер.ЧИП конд. 47нФ X7R 10%, 0805, 50В
C18;CC1206KKX7R8BB106;Кер.ЧИП конд. 10мкФ X7R 10%, 1206, 25В
C19;CC1206KKX7R8BB106;Кер.ЧИП конд. 10мкФ X7R 10%, 1206, 25В
C20;SY035M0470B5S-1019;Конденсатор алюминиевый 35 В x 470 мкФ, Radial, -40...105 °C, 6000 ч
C21;SY035M0470B5S-1019;Конденсатор алюминиевый 35 В x 470 мкФ, Radial, -40...105 °C, 6000 ч
C22;CC0603KRX7R9BB104;Кер.ЧИП конд. 0.1мкФ X7R 10%, 0603, 50В
C23;CC0805KRX7R0BB102;Кер.ЧИП конд. 1000пФ X7R 10%, 0805, 100В
C24;CC0603KRX7R9BB104;Кер.ЧИП конд. 0.1мкФ X7R 10%, 0603, 50В
C25;CC1206KKX7R8BB106;Кер.ЧИП конд. 10мкФ X7R 10%, 1206, 25В
C26;CC1206KKX7R8BB106;Кер.ЧИП конд. 10мкФ X7R 10%, 1206, 25В
C27;GRM1555C1H681JA01D;Кер.ЧИП конд. 680пФ NP0 5%, 0402, 50В
C28;GRM155R71H471KA01D;Кер.ЧИП конд. 470пФ X7R 10%, 0402, 50В
C29;GRM31CR61A476KE15L;Кер.ЧИП конд. 47мкФ X5R 10%, 1206, 10В
C30;CC1206KKX7R8BB106;Кер.ЧИП конд. 10мкФ X7R 10%, 1206, 25В
C31;TAJE107K016RNJ;Конденсатор танталовый 16В, 100мкФ, 10% корпус E
C32;TAJE227K010RNJ;Конденсатор танталовый 10 В, 220 мкФ ±10%, корпус E
C33;CC1206KKX7R8BB106;Кер.ЧИП конд. 10мкФ X7R 10%, 1206, 25В
C34;CC0603KRX7R9BB104;Кер.ЧИП конд. 0.1мкФ X7R 10%, 0603, 50В
C35;CC0603KRX7R9BB104;Кер.ЧИП конд. 0.1мкФ X7R 10%, 0603, 50В
C36;TAJE107K016RNJ;Конденсатор танталовый 16В, 100мкФ, 10% корпус E
C37;CC1206KKX7R8BB106;Кер.ЧИП конд. 10мкФ X7R 10%, 1206, 25В
C38;CC0603KRX7R9BB104;Кер.ЧИП конд. 0.1мкФ X7R 10%, 0603, 50В
C39;TAJV107K025;Конденсатор танталовый 25В, 100мкФ, 10% корпус V
C40;CC1206KKX7R8BB106;Кер.ЧИП конд. 10мкФ X7R 10%, 1206, 25В
C41;CC0603KRX7R9BB104;Кер.ЧИП конд. 0.1мкФ X7R 10%, 0603, 50В
C42;TAJV107K025;Конденсатор танталовый 25В, 100мкФ, 10% корпус V
C43;CC0402KRX7R9BB102;Кер.ЧИП конд. 1000пФ X7R 10%, 0402, 50В
C44;CC0603KRX7R9BB104;Кер.ЧИП конд. 0.1мкФ X7R 10%, 0603, 50В
C45;GRM31CR61A476KE15L;Кер.ЧИП конд. 47мкФ X5R 10%, 1206, 10В
C46;GRM31CR61A476KE15L;Кер.ЧИП конд. 47мкФ X5R 10%, 1206, 10В
C47;GRM31CR61A476KE15L;Кер.ЧИП конд. 47мкФ X5R 10%, 1206, 10В
C48;CC0805KKX5R7BB106;Кер.ЧИП конд. 10мкФ X5R 10%, 0805, 16В
C49;GRM31CR61A476KE15L;Кер.ЧИП конд. 47мкФ X5R 10%, 1206, 10В
C50;CC0402KRX7R7BB104;Кер.ЧИП конд. 0.1мкФ X7R 10%, 0402, 16В
C51;CC0402KRX7R7BB103;Кер.ЧИП конд. 10нФ X7R 10%, 0402, 16В
C52;CC0402KRX7R7BB104;Кер.ЧИП конд. 0.1мкФ X7R 10%, 0402, 16В
C53;CC0402KRX7R7BB104;Кер.ЧИП конд. 0.1мкФ X7R 10%, 0402, 16В
C54;CC0402KRX7R7BB104;Кер.ЧИП конд. 0.1мкФ X7R 10%, 0402, 16В
C55;CC0402KRX7R7BB104;Кер.ЧИП конд. 0.1мкФ X7R 10%, 0402, 16В
C56;CC0402KRX7R7BB104;Кер.ЧИП конд. 0.1мкФ X7R 10%, 0402, 16В
C57;CC0402KRX7R7BB103;Кер.ЧИП конд. 10нФ X7R 10%, 0402, 16В
C58;CC0402KRX7R7BB104;Кер.ЧИП конд. 0.1мкФ X7R 10%, 0402, 16В
C59;CC0402KRX7R9BB102;Кер.ЧИП конд. 1000пФ X7R 10%, 0402, 50В
C60;CC0402KRX7R9BB102;Кер.ЧИП конд. 1000пФ X7R 10%, 0402, 50В
C61;CC0402KRX7R7BB103;Кер.ЧИП конд. 10нФ X7R 10%, 0402, 16В
C62;TAJC107K010RNJ;Конденсатор танталовый 10В, 100мкФ, 10% корпус C
C63;CC0402KRX7R7BB104;Кер.ЧИП конд. 0.1мкФ X7R 10%, 0402, 16В
C64;CC0402KRX7R7BB104;Кер.ЧИП конд. 0.1мкФ X7R 10%, 0402, 16В
C65;TAJA476K006RNJ;Конденсатор танталовый 6.3В, 47мкФ, 10% корпус А
C66;CC0402KRX7R7BB104;Кер.ЧИП конд. 0.1мкФ X7R 10%, 0402, 16В
C67;CC0402KRX7R7BB104;Кер.ЧИП конд. 0.1мкФ X7R 10%, 0402, 16В
C68;GRM1555C1H220FA01D;Кер.ЧИП конд. 22пФ NP0 1%, 0402, 50В
C69;CC0402KRX7R7BB104;Кер.ЧИП конд. 0.1мкФ X7R 10%, 0402, 16В
C70;GRM1555C1H220FA01D;Кер.ЧИП конд. 22пФ NP0 1%, 0402, 50В
C71;CC0402KRX7R7BB104;Кер.ЧИП конд. 0.1мкФ X7R 10%, 0402, 16В
C72;CC0402KRX7R7BB104;Кер.ЧИП конд. 0.1мкФ X7R 10%, 0402, 16В
C73;TAJA106K010RNJ;Конденсатор танталовый 10В, 10мкФ, 10% корпус А
C74;CC0402KRX7R7BB104;Кер.ЧИП конд. 0.1мкФ X7R 10%, 0402, 16В
C75;CC0402KRX7R7BB104;Кер.ЧИП конд. 0.1мкФ X7R 10%, 0402, 16В
C76;CC0402KRX7R7BB104;Кер.ЧИП конд. 0.1мкФ X7R 10%, 0402, 16В
C77;CC0402KRX7R7BB104;Кер.ЧИП конд. 0.1мкФ X7R 10%, 0402, 16В
C78;CC0402KRX7R7BB104;Кер.ЧИП конд. 0.1мкФ X7R 10%, 0402, 16В
C79;CC0805KKX5R7BB106;Кер.ЧИП конд. 10мкФ X5R 10%, 0805, 16В
C80;CC0805KKX5R7BB106;Кер.ЧИП конд. 10мкФ X5R 10%, 0805, 16В
C81;CC0402KRX7R7BB104;Кер.ЧИП конд. 0.1мкФ X7R 10%, 0402, 16В
C82;CC0402KRX7R7BB104;Кер.ЧИП конд. 0.1мкФ X7R 10%, 0402, 16В
C83;CC0805KKX5R7BB106;Кер.ЧИП конд. 10мкФ X5R 10%, 0805, 16В
C84;CC0402KRX7R7BB104;Кер.ЧИП конд. 0.1мкФ X7R 10%, 0402, 16В
C85;GRM21BR60J476ME15L;Кер.ЧИП конд. 47мкФ X5R 20%, 0805, 6.3В
C86;GRM21BR60J476ME15L;Кер.ЧИП конд. 47мкФ X5R 20%, 0805, 6.3В
C87;CC0402KRX7R7BB104;Кер.ЧИП конд. 0.1мкФ X7R 10%, 0402, 16В
C88;CC0402KRX7R7BB104;Кер.ЧИП конд. 0.1мкФ X7R 10%, 0402, 16В
C89;CC0603KRX5R6BB106;Кер.ЧИП конд. 10мкФ X5R 10%, 0603, 10В
C90;CC0402KRX7R7BB104;Кер.ЧИП конд. 0.1мкФ X7R 10%, 0402, 16В
C91;CC0402KRX7R7BB104;Кер.ЧИП конд. 0.1мкФ X7R 10%, 0402, 16В
C92;CC0402KRX7R7BB104;Кер.ЧИП конд. 0.1мкФ X7R 10%, 0402, 16В
C93;CC0402KRX7R7BB104;Кер.ЧИП конд. 0.1мкФ X7R 10%, 0402, 16В
C94;CC0402KRX7R7BB104;Кер.ЧИП конд. 0.1мкФ X7R 10%, 0402, 16В
C95;CC0603KRX5R6BB106;Кер.ЧИП конд. 10мкФ X5R 10%, 0603, 10В
C96;CC0402KRX7R7BB104;Кер.ЧИП конд. 0.1мкФ X7R 10%, 0402, 16В
C97;CC0402KRX7R7BB104;Кер.ЧИП конд. 0.1мкФ X7R 10%, 0402, 16В
C98;TAJA476K006RNJ;Конденсатор танталовый 6.3В, 47мкФ, 10% корпус А
C99;CC0402KRX7R7BB104;Кер.ЧИП конд. 0.1мкФ X7R 10%, 0402, 16В
C100;CC0603KRX5R6BB106;Кер.ЧИП конд. 10мкФ X5R 10%, 0603, 10В
C101;CC0402KRX7R7BB104;Кер.ЧИП конд. 0.1мкФ X7R 10%, 0402, 16В
C102;CC0402KRX7R7BB104;Кер.ЧИП конд. 0.1мкФ X7R 10%, 0402, 16В
C103;CC0402KRX7R7BB104;Кер.ЧИП конд. 0.1мкФ X7R 10%, 0402, 16В
C104;CC0402KRX7R7BB104;Кер.ЧИП конд. 0.1мкФ X7R 10%, 0402, 16В
C105;CC0402KRX7R7BB104;Кер.ЧИП конд. 0.1мкФ X7R 10%, 0402, 16В
C106;CC0402KRX7R7BB104;Кер.ЧИП конд. 0.1мкФ X7R 10%, 0402, 16В
C107;CC0402KRX7R7BB104;Кер.ЧИП конд. 0.1мкФ X7R 10%, 0402, 16В
C108;CC0402KRX7R7BB104;Кер.ЧИП конд. 0.1мкФ X7R 10%, 0402, 16В
C109;CC0805MKX5R6BB226;Кер.ЧИП конд. 22мкФ X5R 20%, 0805, 10В
C110;GRM155R61A475MEAAD;Кер.ЧИП конд. 4.7мкФ X5R 20%, 0402, 10В
C111;GRM155R61A475MEAAD;Кер.ЧИП конд. 4.7мкФ X5R 20%, 0402, 10В
C112;GRM155R61A475MEAAD;Кер.ЧИП конд. 4.7мкФ X5R 20%, 0402, 10В
C113;GRM155R61A475MEAAD;Кер.ЧИП конд. 4.7мкФ X5R 20%, 0402, 10В
C114;GRM155R61A475MEAAD;Кер.ЧИП конд. 4.7мкФ X5R 20%, 0402, 10В
C115;CC0402KRX7R9BB102;Кер.ЧИП конд. 1000пФ X7R 10%, 0402, 50В
C116;CC0402KRX7R7BB104;Кер.ЧИП конд. 0.1мкФ X7R 10%, 0402, 16В
C117;TAJC107K010RNJ;Конденсатор танталовый 10В, 100мкФ, 10% корпус C
C118;TAJA476K006RNJ;Конденсатор танталовый 6.3В, 47мкФ, 10% корпус А
C119;CC0402KRX7R9BB102;Кер.ЧИП конд. 1000пФ X7R 10%, 0402, 50В
C120;CC0402KRX7R7BB104;Кер.ЧИП конд. 0.1мкФ X7R 10%, 0402, 16В
C121;CC0402KRX7R7BB104;Кер.ЧИП конд. 0.1мкФ X7R 10%, 0402, 16В
C122;CC0402KRX7R7BB104;Кер.ЧИП конд. 0.1мкФ X7R 10%, 0402, 16В
C123;CC0402KRX7R7BB104;Кер.ЧИП конд. 0.1мкФ X7R 10%, 0402, 16В
C124;CC0402KRX7R7BB104;Кер.ЧИП конд. 0.1мкФ X7R 10%, 0402, 16В
C125;CC0603KRX5R6BB106;Кер.ЧИП конд. 10мкФ X5R 10%, 0603, 10В
C126;CC0402KRX7R7BB104;Кер.ЧИП конд. 0.1мкФ X7R 10%, 0402, 16В
C127;CC0402KRX7R7BB104;Кер.ЧИП конд. 0.1мкФ X7R 10%, 0402, 16В
C128;CC0402KRX7R7BB104;Кер.ЧИП конд. 0.1мкФ X7R 10%, 0402, 16В
C129;CC0603KRX5R6BB106;Кер.ЧИП конд. 10мкФ X5R 10%, 0603, 10В
C130;CC0402KRX7R7BB104;Кер.ЧИП конд. 0.1мкФ X7R 10%, 0402, 16В
D3;TPD2EUSB30DRTR;TVS DIODE 5.5VWM 8VC SOT3
D4;TPD2EUSB30DRTR;TVS DIODE 5.5VWM 8VC SOT3
D5;IP4791CZ12;IC HDMI ESD PROT 12HXSON
D7;TPD2EUSB30DRTR;TVS DIODE 5.5VWM 8VC SOT3
D8;TPD2EUSB30DRTR;TVS DIODE 5.5VWM 8VC SOT3
D9;IP4791CZ12;IC HDMI ESD PROT 12HXSON
DA3;LD39100PUR;Voltage regulator
DA4;FT232;USB UART IC
DA5;WF111-A;Wi-Fi Module
DA6;MPU-9250;MPU-9250
DD2;TPS563200;17 V Input, 3A Synchronous Step-Down Regulator in SOT-23 with Advanced Eco-mode 6-SOT-23-THIN -40 to 125
DD3;LM3150MH/NOPB-ND;IC REG CTRLR BUCK 14TSSOP
DD4;LM3150MH/NOPB-ND;IC REG CTRLR BUCK 14TSSOP
DD5;TPS563200;17 V Input, 3A Synchronous Step-Down Regulator in SOT-23 with Advanced Eco-mode 6-SOT-23-THIN -40 to 125
DD6;LM5069MM-2/NOPBCT-ND;Hot Swap Controller 1 Channel General Purpose 10-VSSOP
DD7;TPS563200;17 V Input, 3A Synchronous Step-Down Regulator in SOT-23 with Advanced Eco-mode 6-SOT-23-THIN -40 to 125
DD8;INA219AIDCNT;IC CURRENT MONITOR 1% SOT23-8
DD9;TPS563200;17 V Input, 3A Synchronous Step-Down Regulator in SOT-23 with Advanced Eco-mode 6-SOT-23-THIN -40 to 125
DD10;PIC32MX320F128H-80I/PT;Процессор PIC32
DD11;ADG3300BRUZ;Преобразователь уровня, двунаправленный, 8 каналов
DD12;TXS0206YFPR;Преобразователь уровней для SDIO интерфейса
DD13;ADG3300BRUZ;Преобразователь уровня, двунаправленный, 8 каналов
DD14;TPS2065;Power Switch ICs for USB, 1 channel
L2;IHLP2525CZER2R2M01;Индуктивность 2.2мкГн, 8А
L3;DLW5BSN191SQ2L;Common Mode Chokes / Filters 2020 190ohm@100MHz
L4;BLM18PG121SN1D;Фильтр, 120Ом, 100МГц, 2А, 0603
L5;IHLP2525CZER2R2M01;Индуктивность 2.2мкГн, 8А
L6;IHLP2525EZER3R3M01;Индуктивность 3.3мкГн, 8А
L7;IHLP2525CZER2R2M01;Индуктивность 2.2мкГн, 8А
L8;BLM18PG121SN1D;Фильтр, 120Ом, 100МГц, 2А, 0603
L9;IHLP2525CZER2R2M01;Индуктивность 2.2мкГн, 8А
L10;IHLP2525CZER2R2M01;Индуктивность 2.2мкГн, 8А
L11;BLM18PG121SN1D;Фильтр, 120Ом, 100МГц, 2А, 0603
L12;BLM18PG121SN1D;Фильтр, 120Ом, 100МГц, 2А, 0603
L13;BLM18KG221SN1D;Фильтр, 220Ом, 100МГц, 2.2А, 0603
L14;BLM18PG121SN1D;Фильтр, 120Ом, 100МГц, 2А, 0603
L15;DLW21SN900SQ2;Common Mode Chokes / Filters
L16;DLW21SN900SQ2;Common Mode Chokes / Filters
L17;BLM18PG121SN1D;Фильтр, 120Ом, 100МГц, 2А, 0603
L18;BLM18KG221SN1D;Фильтр, 220Ом, 100МГц, 2.2А, 0603
L19;DLW21SN900SQ2;Common Mode Chokes / Filters
L20;BLM18KG221SN1D;Фильтр, 220Ом, 100МГц, 2.2А, 0603
L21;BLM18KG221SN1D;Фильтр, 220Ом, 100МГц, 2.2А, 0603
L22;BLM18PG121SN1D;Фильтр, 120Ом, 100МГц, 2А, 0603
L23;BLM18KG221SN1D;Фильтр, 220Ом, 100МГц, 2.2А, 0603
L24;BLM18KG221SN1D;Фильтр, 220Ом, 100МГц, 2.2А, 0603
R2;RC0402FR-0782K5L;Резистор SMD 82.5кОм ±1% 0,0625Вт
R3;RC0402FR-0761K9L;Резистор SMD 61.9кОм ±1% 0,0625Вт
R4;RC0402FR-07560RL;0.062Вт 0402 560 Ом, 1%
R5;RC0402FR-071K33L;Резистор SMD 1.33кОм ±1% 0,0625Вт
R6;RC0402FR-072KL;Резистор SMD 2кОм ±1% 0,0625Вт
R7;RC0402FR-071K5L;Резистор SMD 1.5кОм ±1% 0,0625Вт
R8;RC0402JR-070RL;Резистор SMD 0Ом ±5% 0,0625Вт
R9;RC0402JR-070RL;Резистор SMD 0Ом ±5% 0,0625Вт
R10;RC0402JR-070RL;Резистор SMD 0Ом ±5% 0,0625Вт
R11;RC0402JR-070RL;Резистор SMD 0Ом ±5% 0,0625Вт
R12;RC0402FR-0751KL;0.062Вт 0402 51 кОм, 1%
R13;RC0402FR-0710KL;Резистор SMD 10кОм ±1% 0,0625Вт
R14;RC0402FR-0710KL;Резистор SMD 10кОм ±1% 0,0625Вт
R15;RL2512FK-070R01L;RES 0.01 OHM 1%
R16;RC0402FR-071K3L;Резистор SMD 1.3кОм ±1% 0,0625Вт
R17;RC0402FR-075K1L;Резистор SMD 5.1кОм ±1% 0,0625Вт
R18;RC0402FR-071K5L;Резистор SMD 1.5кОм ±1% 0,0625Вт
R19;RC0402FR-0745K3L;Резистор SMD 45.3кОм ±1% 0,0625Вт
R20;RC0402FR-0710KL;Резистор SMD 10кОм ±1% 0,0625Вт
R21;RC0402FR-0745K3L;Резистор SMD 45.3кОм ±1% 0,0625Вт
R22;RC0402FR-0710KL;Резистор SMD 10кОм ±1% 0,0625Вт
R23;RC0402FR-0715RL;0.062Вт 0402 15 Ом, 1%
R24;RC0402FR-0715RL;0.062Вт 0402 15 Ом, 1%
R25;RC0402FR-07150RL;Резистор SMD 150Ом ±1% 0,0625Вт
R26;RC0402FR-0710KL;Резистор SMD 10кОм ±1% 0,0625Вт
R27;RC0402FR-0715KL;Резистор SMD 15кОм ±1% 0,0625Вт
R28;RC0402FR-072K7L;Резистор SMD 2.7кОм ±1% 0,0625Вт
R29;RC0402FR-075K1L;Резистор SMD 5.1кОм ±1% 0,0625Вт
R30;RC0402FR-071K5L;Резистор SMD 1.5кОм ±1% 0,0625Вт
R31;RC0402JR-071ML;Резистор SMD 1МОм ±5% 0,0625Вт
R32;RC0402FR-075K1L;Резистор SMD 5.1кОм ±1% 0,0625Вт
R33;RC0402JR-0710KL;Резистор SMD 10кОм ±5% 0,0625Вт
R34;RC0402JR-070RL;Резистор SMD 0Ом ±5% 0,0625Вт
R35;RC0402JR-0710KL;Резистор SMD 10кОм ±5% 0,0625Вт
R36;RC0402JR-0710KL;Резистор SMD 10кОм ±5% 0,0625Вт
R37;RC0402JR-0710KL;Резистор SMD 10кОм ±5% 0,0625Вт
R38;RC0402JR-070RL;Резистор SMD 0Ом ±5% 0,0625Вт
R39;RC0402JR-071KL;Резистор SMD 1кОм ±5% 0,0625Вт
R40;RC0402JR-071KL;Резистор SMD 1кОм ±5% 0,0625Вт
R41;RC0402JR-0710KL;0.0625Вт 0402 10кОм, 5%
R42;RC0402FR-07150RL;Резистор SMD 150Ом ±1% 0,0625Вт
R43;RC0402FR-07150RL;Резистор SMD 150Ом ±1% 0,0625Вт
R44;RC0402JR-0710KL;0.0625Вт 0402 10кОм, 5%
R45;RC0402JR-0710KL;0.0625Вт 0402 10кОм, 5%
R46;RC0402JR-0710KL;Резистор SMD 10кОм ±5% 0,0625Вт
R47;RC0402FR-07150RL;Резистор SMD 150Ом ±1% 0,0625Вт
R48;RC0402JR-071ML;Резистор SMD 1МОм ±5% 0,0625Вт
R49;RC0402JR-070RL;Резистор SMD 0Ом ±5% 0,0625Вт
R50;RC0402FR-0722RL;Резистор SMD 22Ом ±1% 0,0625Вт
R51;RC0402JR-0710KL;Резистор SMD 10кОм ±5% 0,0625Вт
R52;RC0402JR-0710KL;Резистор SMD 10кОм ±5% 0,0625Вт
R53;RC0402FR-0710RL;Резистор SMD 10Ом ±1% 0,0625Вт
R54;RC0402JR-0710KL;Резистор SMD 10кОм ±5% 0,0625Вт
R55;RC0402FR-0710KL;Резистор SMD 10кОм ±1% 0,0625Вт
R56;RC0402JR-071KL;Резистор SMD 1кОм ±5% 0,0625Вт
R57;RC0402FR-072KL;Резистор SMD 2кОм ±1% 0,0625Вт
R58;RC0402JR-071KL;Резистор SMD 1кОм ±5% 0,0625Вт
R59;RC0402FR-075K1L;Резистор SMD 5.1кОм ±1% 0,0625Вт
R60;RC0402FR-075K1L;Резистор SMD 5.1кОм ±1% 0,0625Вт
R61;RC0402FR-072KL;Резистор SMD 2кОм ±1% 0,0625Вт
R62;RC0402JR-0710KL;Резистор SMD 10кОм ±5% 0,0625Вт
R63;RC0402JR-0710KL;Резистор SMD 10кОм ±5% 0,0625Вт
R64;RC0402JR-0710KL;Резистор SMD 10кОм ±5% 0,0625Вт
R65;RC0402JR-0710KL;Резистор SMD 10кОм ±5% 0,0625Вт
R66;RC0402JR-0710KL;Резистор SMD 10кОм ±5% 0,0625Вт
R67;RC0402JR-0710KL;Резистор SMD 10кОм ±5% 0,0625Вт
R68;RC0402JR-0710KL;Резистор SMD 10кОм ±5% 0,0625Вт
R69;RC0402JR-0710KL;Резистор SMD 10кОм ±5% 0,0625Вт
R70;RC0402JR-0710KL;Резистор SMD 10кОм ±5% 0,0625Вт
R71;RC0402JR-0710KL;Резистор SMD 10кОм ±5% 0,0625Вт
R72;RC0402JR-0710KL;Резистор SMD 10кОм ±5% 0,0625Вт
R73;RC0402JR-070RL;Резистор SMD 0Ом ±5% 0,0625Вт
R74;RC0402JR-0710KL;Резистор SMD 10кОм ±5% 0,0625Вт
R75;RC0402JR-070RL;Резистор SMD 0Ом ±5% 0,0625Вт
R76;RC0402JR-070RL;Резистор SMD 0Ом ±5% 0,0625Вт
R77;RC0402JR-070RL;Резистор SMD 0Ом ±5% 0,0625Вт
R78;RC0402JR-070RL;Резистор SMD 0Ом ±5% 0,0625Вт
R79;RC0402JR-070RL;Резистор SMD 0Ом ±5% 0,0625Вт
R80;RC0402JR-070RL;Резистор SMD 0Ом ±5% 0,0625Вт
R81;RC0402JR-070RL;Резистор SMD 0Ом ±5% 0,0625Вт
R82;RC0402JR-070RL;Резистор SMD 0Ом ±5% 0,0625Вт
R83;RC0402JR-070RL;Резистор SMD 0Ом ±5% 0,0625Вт
R84;RC0402JR-070RL;Резистор SMD 0Ом ±5% 0,0625Вт
R85;RC0402JR-0710KL;Резистор SMD 10кОм ±5% 0,0625Вт
R86;RC0402JR-0710KL;Резистор SMD 10кОм ±5% 0,0625Вт
R87;RC0402FR-075K1L;Резистор SMD 5.1кОм ±1% 0,0625Вт
R88;RC0402JR-0710KL;Резистор SMD 10кОм ±5% 0,0625Вт
R89;RC0402JR-0710KL;Резистор SMD 10кОм ±5% 0,0625Вт
R90;RC0402JR-0710KL;Резистор SMD 10кОм ±5% 0,0625Вт
R91;RC0402JR-0710KL;Резистор SMD 10кОм ±5% 0,0625Вт
R92;RC0402JR-0710KL;Резистор SMD 10кОм ±5% 0,0625Вт
R93;RC0402JR-0710KL;Резистор SMD 10кОм ±5% 0,0625Вт
R94;RC0402JR-0710KL;Резистор SMD 10кОм ±5% 0,0625Вт
R95;RC0402JR-0710KL;Резистор SMD 10кОм ±5% 0,0625Вт
R96;RC0402JR-0710KL;Резистор SMD 10кОм ±5% 0,0625Вт
R97;RC0402JR-0710KL;Резистор SMD 10кОм ±5% 0,0625Вт
R98;RC0402JR-0710KL;Резистор SMD 10кОм ±5% 0,0625Вт
R99;RC0402FR-075K1L;Резистор SMD 5.1кОм ±1% 0,0625Вт
R100;RC0402FR-072KL;Резистор SMD 2кОм ±1% 0,0625Вт
R101;RC0402FR-072KL;Резистор SMD 2кОм ±1% 0,0625Вт
R102;RC0402FR-07100RL;Резистор SMD 100Ом ±1% 0,0625Вт
R103;RC0402FR-07100RL;Резистор SMD 100Ом ±1% 0,0625Вт
R104;RC0402FR-07100RL;Резистор SMD 100Ом ±1% 0,0625Вт
R105;RC0402FR-07100RL;Резистор SMD 100Ом ±1% 0,0625Вт
R106;RC0402FR-072KL;Резистор SMD 2кОм ±1% 0,0625Вт
R107;RC0402FR-072KL;Резистор SMD 2кОм ±1% 0,0625Вт
R108;RC0402JR-0710KL;Резистор SMD 10кОм ±5% 0,0625Вт
R109;RC0402JR-070RL;Резистор SMD 0Ом ±5% 0,0625Вт
R110;RC0402JR-071ML;Резистор SMD 1МОм ±5% 0,0625Вт
R111;RC0402JR-070RL;Резистор SMD 0Ом ±5% 0,0625Вт
R112;RC0402JR-071ML;Резистор SMD 1МОм ±5% 0,0625Вт
R113;RC0402JR-071ML;Резистор SMD 1МОм ±5% 0,0625Вт
R114;RC0402JR-070RL;Резистор SMD 0Ом ±5% 0,0625Вт
R115;RC0402JR-071ML;Резистор SMD 1МОм ±5% 0,0625Вт
R116;RC0402JR-071ML;Резистор SMD 1МОм ±5% 0,0625Вт
R117;RC0402FR-0710KL;Резистор SMD 10кОм ±1% 0,0625Вт
R118;RC0402FR-0710KL;Резистор SMD 10кОм ±1% 0,0625Вт
R119;RC0402FR-07150RL;Резистор SMD 150Ом ±1% 0,0625Вт
R120;RC0402FR-07150RL;Резистор SMD 150Ом ±1% 0,0625Вт
R121;RC0402JR-071ML;Резистор SMD 1МОм ±5% 0,0625Вт
R122;RC0402JR-071ML;Резистор SMD 1МОм ±5% 0,0625Вт
R123;RC0402JR-070RL;Резистор SMD 0Ом ±5% 0,0625Вт
R124;RC0402JR-070RL;Резистор SMD 0Ом ±5% 0,0625Вт
R125;RC0402FR-07150RL;Резистор SMD 150Ом ±1% 0,0625Вт
R126;RC0402FR-07150RL;Резистор SMD 150Ом ±1% 0,0625Вт
R127;RC0402FR-072KL;Резистор SMD 2кОм ±1% 0,0625Вт
R128;RC0402FR-072KL;Резистор SMD 2кОм ±1% 0,0625Вт
R129;RC0402FR-072KL;Резистор SMD 2кОм ±1% 0,0625Вт
R130;RC0402FR-0710KL;Резистор SMD 10кОм ±1% 0,0625Вт
R131;RC0402FR-07150RL;Резистор SMD 150Ом ±1% 0,0625Вт
R132;RC0402FR-072KL;Резистор SMD 2кОм ±1% 0,0625Вт
R133;RC0402FR-07150RL;Резистор SMD 150Ом ±1% 0,0625Вт
R134;RC0402JR-0710KL;Резистор SMD 10кОм ±5% 0,0625Вт
R135;RC0402FR-072KL;Резистор SMD 2кОм ±1% 0,0625Вт
R136;RC0402FR-0710KL;Резистор SMD 10кОм ±1% 0,0625Вт
R137;RC0402FR-072KL;Резистор SMD 2кОм ±1% 0,0625Вт
R138;RC0402JR-070RL;Резистор SMD 0Ом ±5% 0,0625Вт
R139;RC0402JR-070RL;Резистор SMD 0Ом ±5% 0,0625Вт
R140;RC0402JR-070RL;Резистор SMD 0Ом ±5% 0,0625Вт
R141;RC0402JR-070RL;Резистор SMD 0Ом ±5% 0,0625Вт
R142;RC0402JR-071KL;Резистор SMD 1кОм ±5% 0,0625Вт
R143;RC0402JR-070RL;Резистор SMD 0Ом ±5% 0,0625Вт
R144;RC0402JR-071ML;Резистор SMD 1МОм ±5% 0,0625Вт
R145;RC0402JR-070RL;Резистор SMD 0Ом ±5% 0,0625Вт
R146;RC0402JR-071KL;Резистор SMD 1кОм ±5% 0,0625Вт
R147;RC0402FR-072KL;Резистор SMD 2кОм ±1% 0,0625Вт
R148;RC0402JR-071KL;Резистор SMD 1кОм ±5% 0,0625Вт
R149;RC0402FR-072KL;Резистор SMD 2кОм ±1% 0,0625Вт
R150;RC0402FR-07150RL;Резистор SMD 150Ом ±1% 0,0625Вт
R151;RC0402FR-07150RL;Резистор SMD 150Ом ±1% 0,0625Вт
R152;RC0402FR-07150RL;Резистор SMD 150Ом ±1% 0,0625Вт
R153;RC0402JR-0710KL;Резистор SMD 10кОм ±5% 0,0625Вт
R154;RC0402JR-0710KL;Резистор SMD 10кОм ±5% 0,0625Вт
R155;RC0402JR-070RL;Резистор SMD 0Ом ±5% 0,0625Вт
R156;RC0402JR-070RL;Резистор SMD 0Ом ±5% 0,0625Вт
R157;RC0402JR-070RL;Резистор SMD 0Ом ±5% 0,0625Вт
R158;RC0402JR-070RL;Резистор SMD 0Ом ±5% 0,0625Вт
R159;RC0402JR-070RL;Резистор SMD 0Ом ±5% 0,0625Вт
R160;RC0402JR-0710KL;Резистор SMD 10кОм ±5% 0,0625Вт
R161;RC0402FR-072KL;Резистор SMD 2кОм ±1% 0,0625Вт
R162;RC0402FR-072KL;Резистор SMD 2кОм ±1% 0,0625Вт
R163;RC0402FR-0710KL;Резистор SMD 10кОм ±1% 0,0625Вт
R164;RC0402JR-0733KL;Резистор SMD 33кОм ±5% 0,0625Вт
R165;RC0402JR-0768KL;Резистор SMD 68кОм ±5% 0,0625Вт
R166;RC0402JR-0768KL;Резистор SMD 68кОм ±5% 0,0625Вт
R167;RC0402JR-0768KL;Резистор SMD 68кОм ±5% 0,0625Вт
R168;RC0402JR-0768KL;Резистор SMD 68кОм ±5% 0,0625Вт
R169;RC0402JR-071KL;Резистор SMD 1кОм ±5% 0,0625Вт
R170;RC0402JR-071KL;Резистор SMD 1кОм ±5% 0,0625Вт
R171;RC0402JR-071KL;Резистор SMD 1кОм ±5% 0,0625Вт
R172;RC0402JR-071KL;Резистор SMD 1кОм ±5% 0,0625Вт
R173;RC0402FR-0710KL;Резистор SMD 10кОм ±1% 0,0625Вт
R174;RC0402FR-0710KL;Резистор SMD 10кОм ±1% 0,0625Вт
R175;RC0402JR-071KL;Резистор SMD 1кОм ±5% 0,0625Вт
R176;RC0402JR-071KL;Резистор SMD 1кОм ±5% 0,0625Вт
R177;RC0402FR-0710KL;Резистор SMD 10кОм ±1% 0,0625Вт
R178;RC0402FR-0710KL;Резистор SMD 10кОм ±1% 0,0625Вт
R179;RC0402JR-071KL;Резистор SMD 1кОм ±5% 0,0625Вт
R180;RC0402JR-071KL;Резистор SMD 1кОм ±5% 0,0625Вт
S3;1-1571983-0;Переключатель, 8 поз., шаг 1.27мм
VD2;MBRS540T3GOSCT-ND;Diode Schottky 40V 5A Surface Mount SMC
VD3;SMBJ30ALFCT-ND;TVS DIODE 30VWM 48.4VC SMB
VD4;STPS2H100A;Diode Schottky
VD5;STPS2H100A;Diode Schottky
VD6;STPS2H100A;Diode Schottky
VD7;STPS2H100A;Diode Schottky
VD8;STPS2H100A;Diode Schottky
VD9;STPS2H100A;Diode Schottky
VD10;STPS2H100A;Diode Schottky
VD11;STPS2H100A;Diode Schottky
VD12;SRDA3.3-4BTG;"Защитный диод - [8-SOIC]; Uраб: 3.3 В; Uимп(макс): 17.7 В; Iимп(макс): 30 А; Тип: Симм; Линий: 4"
VD13;SRDA3.3-4BTG;"Защитный диод - [8-SOIC]; Uраб: 3.3 В; Uимп(макс): 17.7 В; Iимп(макс): 30 А; Тип: Симм; Линий: 4"
VD14;SRDA3.3-4BTG;"Защитный диод - [8-SOIC]; Uраб: 3.3 В; Uимп(макс): 17.7 В; Iимп(макс): 30 А; Тип: Симм; Линий: 4"
VD15;SRDA3.3-4BTG;"Защитный диод - [8-SOIC]; Uраб: 3.3 В; Uимп(макс): 17.7 В; Iимп(макс): 30 А; Тип: Симм; Линий: 4"
VD16;SRDA3.3-4BTG;"Защитный диод - [8-SOIC]; Uраб: 3.3 В; Uимп(макс): 17.7 В; Iимп(макс): 30 А; Тип: Симм; Линий: 4"
VD17;SRDA3.3-4BTG;"Защитный диод - [8-SOIC]; Uраб: 3.3 В; Uимп(макс): 17.7 В; Iимп(макс): 30 А; Тип: Симм; Линий: 4"
VD18;RCLAMP0504S;TVS DIODE 5VWM 25VC SOT23-6
VD19;SRDA3.3-4BTG;"Защитный диод - [8-SOIC]; Uраб: 3.3 В; Uимп(макс): 17.7 В; Iимп(макс): 30 А; Тип: Симм; Линий: 4"
VD20;RCLAMP0504S;TVS DIODE 5VWM 25VC SOT23-6
VD21;RCLAMP0504S;TVS DIODE 5VWM 25VC SOT23-6
VD22;RCLAMP0504S;TVS DIODE 5VWM 25VC SOT23-6
VD23;FYLS-0805SRC;Красный светодиод 0805
VD24;FYLS-0805UYC;Желтый светодиод 0805
VD25;FYLS-0805GC;Зеленый светодиод 0805
VD26;FYLS-0805GC;Зеленый светодиод 0805
VD27;FYLS-0805GC;Зеленый светодиод 0805
VD28;FYLS-0805GC;Зеленый светодиод 0805
VD29;FYLS-0805GC;Зеленый светодиод 0805
VD30;FYLS-0805GC;Зеленый светодиод 0805
VT2;IRFHM830DPbF;FET транзисторы PQFN-8-3.3x3.3
VT3;IRFHM830DPbF;FET транзисторы PQFN-8-3.3x3.3
VT4;IRFHM830DPbF;FET транзисторы PQFN-8-3.3x3.3
VT5;IRFHM830DPbF;FET транзисторы PQFN-8-3.3x3.3
VT6;IRFR7540PbF;60V Single N-Channel HEXFET Power MOSFET in a D-Pak package
VT7;BSS138LT1G;n-MOS транзистор
VT8;BSS138LT1G;n-MOS транзистор
VT9;BSS138LT1G;n-MOS транзистор
VT10;BSS138LT1G;n-MOS транзистор
X1;X1NASMRP;Реперная точка
X3;PLS-6;PLS-6 Вилка штырьевая 2.54мм, 1x6
X4;PLS-6;PLS-6 Вилка штырьевая 2.54мм, 1x6
X5;FQ7050B-8.000;Кристалл, 8 МГц, SMD
X6;DS1021-1*2;PLS-2
X7;DS1021-1*2;PLS-2
X8;LSHM-150-04.0-L-DV-A-S-K-TR;Разьем HERMAPHRODITIC 0.50MM SMD 100POS
X9;LSHM-150-04.0-L-DV-A-S-K-TR;Разьем HERMAPHRODITIC 0.50MM SMD 100POS
X10;LSHM-130-04.0-L-DV-A-S-K-TR;Разьем HERMAPHRODITIC 0.50MM SMD 60POS
X11;DS1023-2x8S21;PBD-16 (DS1023-2x8), Гнездо на плату 2.54мм 2х8 прямое
X12;52610-1572;1.00mm Pitch Easy-On FFC/FPC Connector, Vertical
X13;52610-1572;1.00mm Pitch Easy-On FFC/FPC Connector, Vertical
X14;047352-1001;Разъем micro-SD карты
X15;L829-1J1T-43;1 Port RJ45 Magjack Connector Through Hole 10/100/1000 Base-T, AutoMDIX
X16;10029449-111RLF;CONN HDMI RECPT 19POS SMT R/A
X17;X1NASMRP;Реперная точка
X18;PLS-6;PLS-6 Вилка штырьевая 2.54мм, 1x6
X19;MM70-314-310B1-1-R300;Разьем CONN MXM FMALE 314POS 0.020 GOLD
X20;52610-1572;1.00mm Pitch Easy-On FFC/FPC Connector, Vertical
X21;DS1023-2x8S21;PBD-16 (DS1023-2x8), Гнездо на плату 2.54мм 2х8 прямое
X22;L829-1J1T-43;1 Port RJ45 Magjack Connector Through Hole 10/100/1000 Base-T, AutoMDIX
X23;DS1021-1*2;PLS-2
X24;047352-1001;Разъем micro-SD карты
X25;10029449-111RLF;CONN HDMI RECPT 19POS SMT R/A
X26;X1NASMRP;Реперная точка
X27;X1NASMRP;Реперная точка
X28;X1NASMRP;Реперная точка
X29;X1NASMRP;Реперная точка
X30;X1NASMRP;Реперная точка
X31;X1NASMRP;Реперная точка
XP2;DS1069-4M;Вилка на плату 2.50мм прямая закрытая
XP3;DS1092-01-B6P;Держатель для элем. пит-я CR2032
XP4;47346-0001;CONN USB MICRO B RECPT SMT R/A
XP5;PLD-12;PLD-12 Разъем штырьевой 2,54мм, 2*12
XP6;BH2-14;Разъем BH2-14
XP7;47346-0001;CONN USB MICRO B RECPT SMT R/A
XP8;PLD-10;PLD-10 Вилка штырьевая 2.54мм, 2x5
